 FRANA DI MONTAGUTO | Ieri in paese sit-in istituzionale corsa contro il tempo per evitare una nuova emergenza |… ;;0.9998
 Amici questo sabato torniamo allo Zazzabar / ATP Live Club di Budrione di Carpi insieme a Frana e CDP-Cani Dei Por… ;;0.9963
 ;;0.0076
 Costone in frana sulla nuova Variante di Grottaminarda - Ottopagine ;;0.5943
 Corsa contro il tempo per evitare una nuova emergenza frana | 2019-03-11T181115000Z ;;0.9999
 Frana mortale sulla statale 34 il pm in sei a giudizio C’è anche il sindaco Albertella ;;0.9965
 LE AUTORITÀ A MONTAGUTO FINALMENTE LA NECESSARIA ATTENZIONE AL NUOVO VERSANTE IN FRANA - ;;0.0000
 80 METRI PER UNA MASSA DI 250MILA METRI CUBI LE IMMAGINI DEL NUOVO VERSANTE DELLA FRANA DI MONTAGUTO - ;;0.0000
 Gli idoli di Vauro sono caduti rimangono la nord Corea e il Venezuela questʹ ultimo illegale e presto saraʹ spazz… ;;0.9999
 I primi giorni che mi dava da fare ricerche ero una frana e continuava a dire imparerai io ho imparato facendo un… ;;0.9992
 Frana sulla strada dei frontalieri sei rinvii a giudizio ;;0.8823
 speriamo facciano alla svelta e bene ;;0.9984
 Sindaco di Verbania della Lega / cdx  rinviato a giudizio  I reati contestati tutti di natura colposa sono t… ;;0.9063
 Autostrada Messina Catania - Lavori di consolidamento a monte della frana di Letojanni  Attualità | Gazzetta Jonic… ;;0.9755
 SS640 PortoEmpedocle-Caltanissetta A rischio crollo secondo mareamico il tratto compreso tra Porto Empedocl… ;;0.9953
 Corsa contro il tempo per evitare una nuova emergenza frana Montaguto ;;0.9999
 Frana di Cannobio  udienza preliminare a giugno ;;0.0193
 Villa Giulia percorso interdetto per frana incombente nei pressi dellʹex-cava - informatrieste ;;0.5368
 Tecnici di Protezione Civile e Regione Campania sulla frana di Montaguto per verificare i rischi possibili per i co… ;;0.4888
 A MONTEMURLO 785MILA EURO PER METTERE IN SICUREZZA LA FRANA DI CICIGNANO ;;0.9769
 A MONTEMURLO 785MILA EURO PER METTERE IN SICUREZZA LA FRANA DI CICIGNANO ;;0.9769
 Eleonora DʹUrso dirige ed interpreta Sono una frana al Stradanuova Teatro Auditorium 🎭 ;;0.9995
 Alberghiero di Mondovì dopo la frana gli studenti ritornano a scuola nell’ala storica ;;0.9997
 Frana mortale sulla statale 34 il pm in sei a giudizio C’è anche il sindaco Albertella ;;0.9965
 Frana mortale sulla statale 34 il pm in sei a giudizio C’è anche il sindaco Albertella ;;0.9965
 (Frana a Letojanni stanziate opere per il consolidamento del versante a monte) - ;;0.9992
 Frana di Letojanni il progetto dei lavori che partiranno a settembre ;;0.9983
 PALR e NON eʹ NEANCHE BENE  INFORMATA SULLA AGRIGENTO CALTANISSETTA  si tratta di un finanziamento che permette… ;;1.0000
 Essere un coro sìNon questa voce solaEssere torma stuolo compagniaEssere l’onda che si alza e frananon q… ;;1.0000
 La vicenda della Porrettana interrotta al km 302 dallo scorso 2 febbraio a causa di una frana deve essere risol… ;;0.9998
 Frana la spiaggia del Relitto panico e feriti tra i turisti a Zante  ;;0.9974
 lipogiro paesaggi +fFotoForoFaròFuturoFantascienzaFinta scienzaFrodeFrodoFerodoFrenaFranaFranz ⬆️Mon… ;;0.9935
 Basilicata CALVERA (PZ) - Chiesa Madre Maria SS del Carmine - Nel marzo del 1885 il paese fu travolta da un‘eno… ;;0.9910
 Costone in frana sulla nuova Variante di Grottaminarda - Ottopagine ;;0.5943
 Mondovì a 15 mesi dalla frana gli studenti ritornano nell’ala vecchia dell’Alberghiero ;;1.0000
 Montalbano - Al via dalla mattina di sabato 9 marzo l’atteso intervento di ripristino della frana di Montalbano u… ;;0.9898
 Il territorio costiero agrigentino è sempre più flagellato dall’erosione e dal dissesto idrogeologico ;;0.9965
 ;;0.0076
 Timori e appelli di genitori e politici per i 200 studenti della Valseriana che si recano alle scuole superiori… ;;1.0000
 Frana ad Ardesio iniziano i lavori Giovedì si decide quando riaprirà la strada ;;0.9554
 Gli appelli di genitori e politici per i 200 studenti della Valseriana che si recano alle scuole superiori… ;;0.9999
 Frana ad Ardesio iniziano i lavori Giovedì si decide quando riaprirà la strada ;;0.9554
 Frana ad Ardesio disagi per bus e auto Ecco la mappa delle deviazioni su strada ;;0.0442
  una frana non mi impedirà tra 13 giorni di essere a Genova da MetaErmal ;;0.9995
 20ʹ ST Gomez frana su Ramírez in area e il direttore di gara assegna il calcio di rigore SampAtalanta ;;0.9296
 LOCANA – Intervento dei Vigili del Fuoco in frazione Roncaglie per presunta frana (FOTO E VIDEO)… ;;0.9995
 L’intervento - La Spezia 900mila euro per riaprire la strada interrotta da una frana nel 2011 | Liguria | La Spezi… ;;0.9914
 Hai anche soprannome? — Francesca Romana aka Frana ;;0.9999
 E di querce morte le cui radici sono ancora una diga per la terra che altrimenti alla prima pioggia diventerebbe… ;;1.0000
 Quale sarebbe il tuo nome se fossi un DJ? — Frana oppure DjFrancync ;;0.9965
 Frana in alta Val Seriana Stanziare subito le risorse - A seguito dello smottamento avvenuto in località Ponte S… ;;0.9995
 Frana ad Ardesio disagi per bus e auto Ecco la mappa delle deviazioni su strada ;;0.0442
 Costone in frana sulla nuova Variante di Grottaminarda - Ottopagine ;;0.5943
 Il fallo di Paitek è rigore per il MilanDe Paoli frana su Piatek già in elevazione colpendola anche di braccioChievoMilan ;;0.9988
 ;;0.0076
 Capito come funziona?Se passa la linea Salvini allora DiMaio è un pollo è il movimento frana nel caso contrario q… ;;1.0000
 I buffoni a 5S hanno trovato un altro escamotage per evitare una decisione sulla TAVHanno lanciato la palla oltre… ;;1.0000
 La provinciale resta chiusa E il consigliere regionale Paolo Franco chiede lʹintervento immediato della Regione pe… ;;0.9998
 Aggiornamento da Ardesio la strada provinciale dovrà restare chiusa almeno 15 giorni dopo la frana di questa notte ;;0.9515
 Grossa frana ad Ardesio nella notte  Chiusa la strada traffico sulla deviazione ;;0.9554
 QUINCINETTO - Una frana minaccia lʹautostrada ora cʹè il progetto paramassi ;;0.9967
 Frana tra Ardesio e Gromo la provinciale chiusa almeno 15 giorni - AllNews24 - Prenderanno il via lunedì 11 marz… ;;0.9707
 🚫 In FiPiLi per intervento di ripristino frana chiusura dell´uscita verso Via Quaglierini in direzione Mare nel… ;;0.9737
 Frana ad Ardesio disagi per bus e auto Ecco la mappa delle deviazioni su strada ;;0.0442
 Frana di Montalbano oggi iniziano i lavori a termine tra 5 mesi ;;0.4297
 Frana sulla provinciale ad Ardesio la strada rimane chiusa Lunedì al via i lavori per la messa in sicurezza;;0.9989
 Le immagini della frana di Ardesio ;;0.0001
 🚫  Fino allʹ8dicembre tratto chiuso per lavori al km 0 della SP224 di Marina di Pisa (svincolo via Quaglierini a… ;;0.1064
 Lo avevamo detto lo abbiamo fatto Il prossimo appuntamento è l’inaugurazione del ponte cambiamoinsieme laspezia… ;;0.9999
 Strada chiusa per la frana serve lʹelisoccorso per soccorrere un anziano colpito da malore a Valgoglio ;;0.9996
 cronaca    laspezia    - Al via i lavori di ripristino della frana di Montalbano  ;;0.9950
 Tutti i politici a favore della tav ?? Tutti insieme perché lʹItalia ha bisogno di infrastrutture ?? Falsa politica… ;;0.9999
 Frana nella notte al Ponte delle Seghe di Ardesio - Frana ad Ardesio in località Ponte delle seghe nella notte tr… ;;0.9998
 Frana Rio vivo finalmente i lavori Si avvicina il rientro a casa per gli sfollati ;;0.9999
 Valgoglio strada chiusa per frana elisoccorso in azione per soccorrere un anziano - AllNews24 - Strada provinci… ;;0.4852
 Frana nel Bergamasco travolta auto in sosta Chiusa la Provinciale ;;0.0182
 stradeBG frana sulla SP 49 la strada rimarrà chiusa diversi giorni per operazioni di pulizia disgaggio e messa i… ;;0.6678
 stradeBG SP 49 in corso ispezione sul versante della frana ;;0.3870
 Bergamo 9mar 930 frana nella notte lungo la SP 49 tra Ardesio e Gromo travolta una vettura in sosta In corso… ;;0.9995
 Bergamo 9mar 930 frana nella notte lungo la SP 49 tra Ardesio e Gromo travolta una vettura in sosta In corso… ;;0.9995
 Il bello di vivere in montagna? Che ogni tanto si resta isolati per qualche frana (stavolta la strada alternativa… ;;0.9998
 Ardesio frana nella notte chiusa la strada provinciale  ;;0.1217
 Frana nella notte ad Ardesio la strada provinciale verso Gromo è chiusa ;;0.5742
 Mondovì Alberghiero Giolitti studenti ed insegnanti tornano nellʹala storica esclusa la manica interessata… ;;0.9989
 Frana ad Ardesio nella notte - Foto Strada la strada del Ponte Seghe ;;0.9991
 Frana a Rio Vivo partiti i lavori sul costone ;;0.9804
 Frana nella notte tra Ardesio e Gromo la provinciale chiusa al traffico - Bergamo News ;;0.1085
 Frana colpisce auto in sosta strada chiusa ad Ardesio - Valseriana News ;;0.0015
 Frana colpisce auto in sosta strada chiusa ad Ardesio - foto - Valseriana News ;;0.0010
 Strada del Plan via la frana in attesa della cura definitiva ;;0.9005
 Frana colpisce auto in sosta strada chiusa ad Ardesio - foto - Valseriana News ;;0.0010
 Una grande quantità di massi e detriti si è riversata sulla carreggiata nella notte tra lʹ8 e il 9 marzo ;;0.9999
 Frana nella notte tra Ardesio e Gromo la provinciale chiusa al traffico ;;0.2448
 stradeBG Sp 49 Valle Seriana superiore chiusa per frana tra Ardesio e Gromo Si attende lʹalba per ispezione versante ;;0.9960
 Frana nella notte tra Ardesio e Gromo la provinciale chiusa al traffico - AllNews24 - Una frana di grandi dimens… ;;0.7644
 Strada bloccata tra Ardesio e Gromo operazioni in corso per liberare la provinciale ;;1.0000
 Calla Frana imbecil TENISxESPN ;;0.9881
 LʹArmani Exchange frana nella propria metà di campo il CSKA ringrazia e devasta lʹarea Non basta il tentativo di… ;;1.0000
 Frana di Pomarico protezionecivile ;;0.9728
 Frana a Civitacampomarano Federico presenta interrogazione Toma inadempiente - Informamolise ;;0.9989
 riassumendo ieri la BCE ha ridotto da 16 a 12% la previsione di PIL eurozona facendo cedere i mercati la Cina d… ;;1.0000
 Ciao cara guarda io sono come te sono vecchia ho 60 anni e tecnologicamente sono una frana ho iniziato qui su t… ;;0.9998
 2 anni dopo la frana non c’è nemmeno lo studio promesso Federico contro Toma “Cominci a lavorare qua si gioca co… ;;1.0000
 Colpo di scena chiusura della campagna elettorale sulla frana di Fraine ;;0.4282
 QUINEWS Volterra Santa Margherita via ai lavori su seconda frana ;;0.6758
 Santa Margherita via ai lavori su seconda frana volterra  ;;0.0180
 La mia vita è un casino cosmico sempre di corsa il tempo per me lo trovo solo alle 530 la mattina quando mia fig… ;;1.0000
 La strada Sinnica è vitale per il comune di Senise (Potenza) ma è chiusa al traffico dalla frana di qualche sett… ;;0.9999
 Dissesto idrogeologico oltre una frana su quattro colpisce i terreni agricoli ;;0.9942
 Gli interventi si rendono necessari a causa della storica frana che interessò la zona in questione dellʹAppennino p… ;;1.0000
 “La strada interrotta dalla frana allontana Montemarzo da Azzano” ;;0.8807
 StefanoCecchi 🗣️ Var? Il problema è la cultura di questi tempi Nel calcio moderno se un centravanti si present… ;;0.9998
 “Sono una Frana” è la storia di Lisa un’adolescente irrequieta che dalla sua stanza disordinata e tinta di rosa sc… ;;0.9998
 ;;0.0076
 Trovare i finanziamenti e vedere partire questi lavori è motivo di grande soddisfazione commenta Luca Della Bitta ;;0.9999
 Costone in frana sulla nuova Variante di Grottaminarda - Ottopagine ;;0.5943
 Costone in frana sulla nuova Variante di Grottaminarda - Ottopagine ;;0.5943
 Frana a Vilminore a che punto sono i lavori? ;;0.9939
 Richiesta stato di emergenza per Frana sulla ex ss19 perorata dai senatori PD Gianni Pittella e Salvatore Margiotta ;;0.9957
 Vilminore duemila metri di pali e tiranti In aprile riapre la strada dopo la frana ;;0.9902
 FRANA NELL’AREA DI PIANO MENTA DI LAURIA PITTELLA E MARGIOTTA CHIEDONO STATO DI EMERGENZA AL GOVERNO NAZIONALE… ;;0.9101
 Vilminore duemila metri di pali e tiranti In aprile riapre la strada dopo la frana ;;0.9902
 Cinquento mila euro per la frana in loc Felicioni fosciandora ;;1.0000
 Ciaooooo a tutti come state / hello evrione How are you ? Va bene basta parlare un inglese li so sono una frana a p… ;;0.9996
 Mori frana sopra il paese I detriti fermati dalle reti Il tonfo avvertito dagli abitanti LE IMMAGINI Intervent… ;;0.9994
 Mori frana sopra lʹabitato le reti trattengono i detriti Il tonfo avvertito dagli abitanti Alcuni tiranti hanno… ;;0.9174
 Mori frana sopra lʹabitato le reti trattengono i detriti Il tonfo avvertito dagli abitanti Alcuni tiranti hanno… ;;0.9174
 Frana di Montalbano sabato il via ai lavori di ripristino ;;0.9969
 Draghi annuncia che darà altri 400 o 500 miliardi a tasso zero alle banche e lʹindice delle banche europee SX7E fra… ;;1.0000
 Frana a Vilminore a che punto sono i lavori? ;;0.9939
 Temo che ci ritrovrremo la Cuccarini Europarlamentare sotto la bandiera di A da Giussano Staʹ studiando scienze p… ;;1.0000
 Il video mostra lʹintervento in corso nel territorio di Grottole in località Fondoni dove oggi si è verificata un… ;;0.9999
 Frana di Altolia al via il monitoraggio satellitare ;;0.9665
 L’allarme di Mareamico “Galleria del Caos a rischio chiusura per frana” ;;0.9878
 Costone in frana sulla nuova Variante di Grottaminarda - Ottopagine ;;0.5943
 Frana di Altolia al via il monitoraggio satellitare;;0.0957
 Frana di Altolia al via il monitoraggio satellitare - ;;0.0004
 Lʹallarme di Mareamico Galleria del Caos a rischio chiusura per frana ;;0.8502
 Regione Messina Rilevamento satellitare per la frana di Altolia ;;1.0000
 Messina frana su costone vicino Altolia scatta il rilevamento satellitare -  Messina frana costone vicino  ;;0.9980
 Frana al villaggio Altolia a Messina il costone roccioso sarà monitorato col satellite ;;0.9998
 ;;0.0076
 siete indecorosi quando dormite mentre il mondo frana in un vanaglorioso monologo di se stesso ;;0.9997
 Oggi mi hanno fatto i complimenti per qualcosa che ho “cucinato” io io che sono una frana in cucina ceh mi hanno… ;;0.9997
 Bolzano operaio muore travolto da una frana di massi ! ;;0.9996
 LaSiritide Senise Basilicata franasinnica 6/03/2019 - Frana su Sinnica interverrà la Regione ;;0.9862
 Frana Sinnica la Regione pronta ad intervenire ;;0.9997
 Frana di Bussoleno arrivano solo 7 milioni di euro invece dei 12 richiesti ;;0.9999
 LaSiritide WebTv Video Franasinnica senise 6/03/2019 - Frana Sinnica incontro in Prefettura ;;0.0186
 Arenaria di Paolo Teobaldi è una storia che frana e sgrotta sui versanti di un monticello dʹarenaria 200 metri sul… ;;0.9991
 LaSiritide Basilicata Senise Franasenise 6/03/2019 - Frana su Sinnica interverrà la Regione ;;0.7973
 ⚒APPROFONDIMENTO⚒Da Terre di frontieraTags FRANE RISCHIOIDROGEOLOGICO MATERA POMARICO BASILICATA &lt&ltGli ef… ;;0.9972
 Frana di Bussoleno arrivano solo 7 milioni di euro invece dei 12 richiesti ;;0.9999
 Caposele frana sul costone che sovrasta il cantiere della PavoncelliBis;;0.9999
 Sarno Espropri post - frana Sirica Dopo 20 anni i cittadini attendono ancora soldi ;;0.9980
 Si sta innescando nella percezione della narrazione del M5S un meccanismo pericoloso simile a quello che ha coinv… ;;0.9999
 FRANA DI POMARICO (MT) A POTENZA INIZIATIVA DI SOLIDARIETÀ ;;0.0231
 Lo spettacolo si terrà sabato 9 marzo con inizio alle ore 2030 presso il Teatro Stabile di Potenza ;;0.9998
 FRANA DI POMARICO (MT) A POTENZA INIZIATIVA DI SOLIDARIETÀ ;;0.9962
 Frana Sinnica nota di sollecito dei sindaci per la riapertura ;;1.0000
 Una colorazione anomala delle acque del fiume ha fatto scoprire lo smottamento Durante il week end sono intervenut… ;;0.9999
 Stasera in Comune ho ricevuto il Comitato Frana Pianomenta per fare il punto sui lavori di ripristino dellʹarteria… ;;0.9975
 Il problema è che tutta la tua indipendenza frana quando incontri qualcuno che ti fa stare bene che  ti da lʹillus… ;;0.9999
 Borse prudente ma positiva l’Europa mentre Wall Street frana ;;0.9991
 Frana di Pomarico a Potenza una manifestazione di solidarietà ;;0.0145
 Costone in frana sulla nuova Variante di Grottaminarda - Ottopagine ;;0.5943
 LaSiritide Basilicata Senise senisese Franasinnica - 5/03/2019 - Frana Sinnica nota dei sindaci ;;0.9958
 Strada provinciale Ponte-Casalduni al via lavori per risanamento frana ;;0.9186
 Frana tra Ponte e Casalduni consegnati i lavori Ponte ;;0.0000
 Frana nella notte in via Rossi a Caulonia superiore - Ciavula ;;0.0246
 Riascolta lʹintervista di JacopoNassi su RRCapitale a Massimo Frana dottore di ricerca in Filosofia delle religi… ;;0.9999
 zingaretti che dopo le primarie i sente capo del governo dice che la tav si deve fare  A zingareʹ fatte na passe… ;;1.0000
 Rinvenuto uno smottamento del terreno nei pressi del costone alto che sovrasta Vallone delle Brecce ovvero la zon… ;;0.9999
 Risanamento di una frana sulla provinciale Ponte-Casalduni - ;;0.0000
 Costone in frana sulla nuova Variante di Grottaminarda Grottaminarda ;;0.9406
 Dalle 1420 alle 1445 con JacopoNassi su RRCapitale in diretta Massimo Frana dottore di ricerca in Filosofia de… ;;0.9861
 RAGA ANCHE VOI SIETE UNA FRANA NEI RAPPORTI SOCIALI? PERCHÉ IO SI SEMPRE AIUTO ;;0.9996
 Orecchiette integrali con cime di rapa e semi di lino 🎈“Siate presenti” in cucinaSperimentate pasticciate spor… ;;0.9999
 Nocera Inferiore Frana Montalbino comitati  ;;0.9760
 Oggi la conferenza stampa del primo frana di JINYOUNG ❤ TESORO era nervoso andrai benissimo ;;0.9999
 ;;0.0076
 Anche oggi stesso pensiero vorrei partecipare come pubblico in studio alle Maratone di Mentana Per l’occasione fa… ;;1.0000
 Borse prudente ma positiva lʹEuropa mentre Wall Street frana - ;;0.9968
 SS64 Porrettana tratto chiuso causa frana a SS64  Incrocio Pavana Pistoiese (Km 302) in entrambe le direzioni dall… ;;0.9904
 Frana SS Sinnica Il dissesto idrogeologico è il dissesto delle istituzioni ;;0.9994
 Al liceo ero veramente una frana in matematica e mi salvavo dal debito solo perché avevo otto e nove nelle altre ma… ;;0.9999
 Dissesto ideologioSi spendono milioni di euro per pulire i fossi della grande frana  e zero per prevenire il… ;;0.9988
 A che eta il primo bacio? — 14 si chiamava Nadiaera bellissima ed io una frana ;;0.9995
 Disposta lʹautopsia sul corpo dellʹoperaio sepolto da una frana alla Sibelco di Robilante ;;0.9980
 Politica Basilicata 4/03/2019 - Rosella su frana su Sinnica ;;0.0001
 LaSiritide Basilicata Franalauria Lauria 4/03/2019 - Lauria frana il Comitato scrive al Prefetto per accelera… ;;0.9222
 Disposta lʹautopsia sul corpo dellʹoperaio sepolto da una frana alla Sibelco di Robilante ;;0.9980
 La vasta frana del costone roccioso che da settimane provoca disagi sulla viaFlaminia in prossimità del GRA in di… ;;0.9998
 La vasta frana del costone roccioso che da settimane provoca disagi sulla viaFlaminia in prossimità del GRA in di… ;;0.9998
 Siracusa Frana il Siracusa contro la Cavese salvezza problematica - Libertà Sicilia ;;0.9964
 San Giorgio la Molara frana su case con colata di fango evacuate tre famiglie ;;0.0143
 Cuneo incidente sul lavoro alla Sibelco di Robilante operaio travolto e ucciso da una frana ;;1.0000
 SanGiorgiolaMolara - Frana sulla Provinciale evacuata una famiglia ;;0.0007
 ;;0.0076
 più vado avanti più mi rendo conto di essere una frana davvero ;;1.0000
 Ma la poliziotta sotto copertura una completa frana Ma secondo te ti drogava il vino con te davanti?? Che scema… ;;0.9999
 Le incessanti piogge provocano la frana e il fango viene giù come una cascataLe immagini sconcertanti… ;;1.0000
 SS64 Porrettana tratto chiuso causa frana a SS64  Incrocio Pavana Pistoiese (Km 302) in entrambe le direzioni dall… ;;0.9904
 Frana un costone tre famiglie evacuate - AllNews24 - Tre famiglie sono state invitate a lasciare le loro abitazi… ;;0.9991
 Bernardeschi frana addosso a Bonucci calcio di punizione per la Juventus Benissimo ;;1.0000
 Frana un costone tre famiglie evacuate SanGiorgioLaMolara ;;0.5632
 Diretta Gravina-Taranto 0-0 / primo tempo ;;0.8528
 giù le immatricolazioni delle auto un crollo delle diesel e ancor più del metano una frana inarrestabile ;;0.9998
 Domani venite coi cartellini con i nick di twitter perché voglio riconoscervi ma sono una frana con nomi e facce ;;0.9999
 Il Taranto frana a Gravina Serie C più lontana ;;0.9992
 Non imparerò mai a guidare sono una frana cristo ;;0.0184
 Una frana Una notizia E un grazie ;;0.8287
 Una frana Una notizia E un grazie - ;;0.6317
 Sequestrato muro in area a rischio frana ;;0.1534
 io sono una frana quando si tratta di prendere una scelta anche riguardo cose totalmente stupide e futili sono unʹeterna indecisa ;;1.0000
 Ultime Notizie da ;;0.8297
 ;;0.0076
 Sono una frana nel disegno digitale Ma non potevo non disegnare Klaus e Diego 😭😂TheUmbrellaAcademy ;;0.9999
 Cuneo incidente sul lavoro alla Sibelco di Robilante operaio travolto e ucciso da una frana ;;1.0000
 Cuneo incidente sul lavoro alla Sibelco di Robilante operaio travolto e ucciso da una frana ;;1.0000
 Travolto da una frana durante lo scavo operaio di 42 anni perde la vita nel Cuneese ;;1.0000
 Travolto da una frana durante lo scavo operaio di 42 anni perde la vita nel Cuneese ;;1.0000
 Travolto da una frana durante lo scavo operaio di 42 anni perde la vita nel Cuneese [news aggiornata alle 1016] ;;1.0000
 Tragedia sul lavoro alla cava “Sibelco” di Robilante operaio di 42 anni travolto e ucciso da una frana LaStampa ;;1.0000
 Tragedia sul lavoro alla cava “Sibelco” di Robilante operaio di 42 anni travolto e ucciso da una frana ;;1.0000
 Tragedia sul lavoro alla cava “Sibelco” di Robilante operaio di 42 anni travolto e ucciso da una frana ;;1.0000
 Robilante (CN) Operaio di 42 anni muore travolto da una frana mentre lavora in una cava ;;0.9997
 Tragedia sul lavoro alla cava “Sibelco” di Robilante operaio di 42 anni travolto e ucciso da una frana ;;1.0000
 Tragedia sul lavoro alla cava “Sibelco” di Robilante operaio di 42 anni travolto e ucciso da una frana LaStampa ;;1.0000
 Tragedia sul lavoro alla cava “Sibelco” di Robilante operaio di 42 anni travolto e ucciso da una frana LaStampa ;;1.0000
 Incidentifrana in cava muore operaio ;;0.9995
 FRANA SINNICA ANCORA TUTTO BLOCCATO INVIATO DOSSIER A ROSPI COMPONENTE COMMISSIONE INFRASTRUTTURE DELLA CAMERA ;;0.0188
 Incidentifrana in cava muore operaio ;;0.9995
 Operaio di 42 anni ucciso da una frana in una cava a Robilante - AllNews24 - Un operaio di 42 anni ha perso la vi… ;;0.9999
 Operaio muore travolto da una frana;;0.9990
 Tragedia sul lavoro alla cava “Sibelco” di Robilante operaio di 42 anni travolto e ucciso da una frana LaStampa ;;1.0000
 Ansa news Piemonte Incidenti lavoro frana in una cava morto operaio travolto ;;0.9999
 Travolto da una frana durante lo scavo operaio di 42 anni perde la vita nel Cuneese [news aggiornata alle 1449] ;;1.0000
 Travolto da una frana durante lo scavo operaio di 42 anni perde la vita nel Cuneese [news aggiornata alle 1447] ;;1.0000
 Questa mattina  ennesimo incidente mortale sul lavoro A Robilante ;;0.8873
